…
Next step, we need to conduct a process called ***tokenization***, which
breaks the text into individual tokens and transform it to a tidy data
structure.

``` r
# install.packages("tidytext")
library(tidytext)
text_df %>% unnest_tokens(output = tokens, input = text)
```

    ## # A tibble: 24 x 2
    ##     line tokens
    ##    <int> <chr> 
    ##  1     1 this  
    ##  2     1 is    
    ##  3     1 a     
    ##  4     1 video 
    ##  5     1 for   
    ##  6     1 ad699 
    ##  7     1 data  
    ##  8     1 mining
    ##  9     2 we    
    ## 10     2 will  
    ## # … with 14 more rows
…
In this section, we will use
[gutenbergr](https://github.com/ropensci/gutenbergr) package as the
source of our raw tidy text. This package contains metadata for all
Project Gutenberg works as R datasets, so that you can search and filter
for particular works before downloading. The dataset
`gutenberg_metadata` contains information about each work, pairing
Gutenberg ID with title, author, language, etc:

``` r
# install.packages("gutenbergr")
library(gutenbergr)
gutenberg_metadata
```

    ## # A tibble: 51,997 x 8
    ##    gutenberg_id title author gutenberg_autho… language gutenberg_books…
    ##           <int> <chr> <chr>             <int> <chr>    <chr>           
    ##  1            0 <NA>  <NA>                 NA en       <NA>            
    ##  2            1 The … Jeffe…             1638 en       United States L…
    ##  3            2 "The… Unite…                1 en       American Revolu…
    ##  4            3 John… Kenne…             1666 en       <NA>            
    ##  5            4 "Lin… Linco…                3 en       US Civil War    
    ##  6            5 The … Unite…                1 en       American Revolu…
    ##  7            6 Give… Henry…                4 en       American Revolu…
    ##  8            7 The … <NA>                 NA en       <NA>            
    ##  9            8 Abra… Linco…                3 en       US Civil War    
    ## 10            9 Abra… Linco…                3 en       US Civil War    
    ## # … with 51,987 more rows, and 2 more variables: rights <chr>,
    ## #   has_text <lgl>
…
``` r
raw_text <- gutenberg_download(11)
```

    ## Determining mirror for Project Gutenberg from http://www.gutenberg.org/robot/harvest

    ## Using mirror http://aleph.gutenberg.org

``` r
raw_text
```

    ## # A tibble: 3,339 x 2
    ##    gutenberg_id text                              
    ##           <int> <chr>                             
    ##  1           11 ALICE'S ADVENTURES IN WONDERLAND  
    ##  2           11 ""                                
    ##  3           11 Lewis Carroll                     
    ##  4           11 ""                                
    ##  5           11 THE MILLENNIUM FULCRUM EDITION 3.0
    ##  6           11 ""                                
    ##  7           11 ""                                
    ##  8           11 ""                                
    ##  9           11 ""                                
    ## 10           11 CHAPTER I. Down the Rabbit-Hole   
    ## # … with 3,329 more rows

``` r
tidy_text <- raw_text %>% 
  unnest_tokens(output = tokens, input = text) %>% 
  count(tokens, sort = TRUE)
tidy_text
```

    ## # A tibble: 2,634 x 2
    ##    tokens     n
    ##    <chr>  <int>
    ##  1 the     1644
    ##  2 and      872
    ##  3 to       729
    ##  4 a        632
    ##  5 she      541
    ##  6 it       530
    ##  7 of       514
    ##  8 said     462
    ##  9 i        408
    ## 10 alice    386
    ## # … with 2,624 more rows
…
``` r
tidy_text <- raw_text %>% 
  unnest_tokens(output = tokens, input = text) %>% 
  anti_join(stop_words, by = c("tokens" = "word")) %>% 
  count(tokens, sort = TRUE)
tidy_text
```

    ## # A tibble: 2,165 x 2
    ##    tokens      n
    ##    <chr>   <int>
    ##  1 alice     386
    ##  2 time       71
    ##  3 queen      68
    ##  4 king       61
    ##  5 turtle     57
    ##  6 mock       56
    ##  7 gryphon    55
    ##  8 hatter     55
    ##  9 head       49
    ## 10 voice      48
    ## # … with 2,155 more rows
…
#### a. `AFINN`

The `AFINN` lexicon assigns words with a score that runs between -5 and
5, with negative scores indicating negative sentiment and positive
scores indicating positive sentiment.

``` r
get_sentiments(lexicon = "afinn")
```

    ## # A tibble: 2,477 x 2
    ##    word       value
    ##    <chr>      <dbl>
    ##  1 abandon       -2
    ##  2 abandoned     -2
    ##  3 abandons      -2
    ##  4 abducted      -2
    ##  5 abduction     -2
    ##  6 abductions    -2
    ##  7 abhor         -3
    ##  8 abhorred      -3
    ##  9 abhorrent     -3
    ## 10 abhors        -3
    ## # … with 2,467 more rows

#### b. `bing`

The `bing` lexicon categorizes words in a binary fashion into positive
and negative categories.

``` r
get_sentiments(lexicon = "bing")
```

    ## # A tibble: 6,786 x 2
    ##    word        sentiment
    ##    <chr>       <chr>    
    ##  1 2-faces     negative 
    ##  2 abnormal    negative 
    ##  3 abolish     negative 
    ##  4 abominable  negative 
    ##  5 abominably  negative 
    ##  6 abominate   negative 
    ##  7 abomination negative 
    ##  8 abort       negative 
    ##  9 aborted     negative 
    ## 10 aborts      negative 
    ## # … with 6,776 more rows

#### c. `nrc`

The `nrc` lexicon categorizes words in a binary fashion (“yes”/“no”)
into categories of positive, negative, anger, anticipation, disgust,
fear, joy, sadness, surprise, and trust.

``` r
get_sentiments(lexicon = "nrc")
```

    ## # A tibble: 13,901 x 2
    ##    word        sentiment
    ##    <chr>       <chr>    
    ##  1 abacus      trust    
    ##  2 abandon     fear     
    ##  3 abandon     negative 
    ##  4 abandon     sadness  
    ##  5 abandoned   anger    
    ##  6 abandoned   fear     
    ##  7 abandoned   negative 
    ##  8 abandoned   sadness  
    ##  9 abandonment anger    
    ## 10 abandonment fear     
    ## # … with 13,891 more rows
…
### 2.2 Sentiment Analysis with Inner Join

Much as removing stop words is an anti-join operation, performing
sentiment analysis is an inner join operation. Let’s look at the words
with a joy score from the NRC lexicon and find out what the most common
joy words are in *Alice’s Adventures in Wonderland*.

``` r
raw_text <- gutenberg_download(11)
raw_text
```

    ## # A tibble: 3,339 x 2
    ##    gutenberg_id text                              
    ##           <int> <chr>                             
    ##  1           11 ALICE'S ADVENTURES IN WONDERLAND  
    ##  2           11 ""                                
    ##  3           11 Lewis Carroll                     
    ##  4           11 ""                                
    ##  5           11 THE MILLENNIUM FULCRUM EDITION 3.0
    ##  6           11 ""                                
    ##  7           11 ""                                
    ##  8           11 ""                                
    ##  9           11 ""                                
    ## 10           11 CHAPTER I. Down the Rabbit-Hole   
    ## # … with 3,329 more rows

``` r
tidy_text <- raw_text %>% 
  unnest_tokens(output = tokens, input = text)
tidy_text
```

    ## # A tibble: 26,694 x 2
    ##    gutenberg_id tokens    
    ##           <int> <chr>     
    ##  1           11 alice's   
    ##  2           11 adventures
    ##  3           11 in        
    ##  4           11 wonderland
    ##  5           11 lewis     
    ##  6           11 carroll   
    ##  7           11 the       
    ##  8           11 millennium
    ##  9           11 fulcrum   
    ## 10           11 edition   
    ## # … with 26,684 more rows

``` r
nrc_joy <- get_sentiments("nrc") %>% 
  filter(sentiment == "joy")
tidy_text %>% 
  inner_join(nrc_joy, by = c("tokens" = "word")) %>% 
  count(tokens, sort = TRUE)
```

    ## # A tibble: 95 x 2
    ##    tokens        n
    ##    <chr>     <int>
    ##  1 found        32
    ##  2 white        30
    ##  3 good         27
    ##  4 garden       16
    ##  5 baby         14
    ##  6 beautiful    13
    ##  7 dance        13
    ##  8 grow         13
    ##  9 deal         12
    ## 10 child        11
    ## # … with 85 more rows
…
``` r
library(tidyr)
alice_sentiment <- raw_text %>% 
  mutate(linenumber = row_number()) %>% 
  unnest_tokens(tokens, text) %>% 
  inner_join(get_sentiments("bing"), by = c("tokens" = "word")) %>% 
  count(index = linenumber %/% 25, sentiment) %>% 
  spread(sentiment, n, fill = 0) %>% 
  mutate(sentiment = positive - negative,
         fill = ifelse(sentiment >= 0, "positive score", "negative score"))
alice_sentiment
```

    ## # A tibble: 134 x 5
    ##    index negative positive sentiment fill          
    ##    <dbl>    <dbl>    <dbl>     <dbl> <chr>         
    ##  1     0        3        5         2 positive score
    ##  2     1        6        6         0 positive score
    ##  3     2       11       15         4 positive score
    ##  4     3        7        5        -2 negative score
    ##  5     4        2        7         5 positive score
    ##  6     5        9        9         0 positive score
    ##  7     6        4       10         6 positive score
    ##  8     7       10        9        -1 negative score
    ##  9     8        4        2        -2 negative score
    ## 10     9        6        9         3 positive score
    ## # … with 124 more rows
…
``` r
library(dplyr)
library(tidytext)
library(gutenbergr)
raw_text <- gutenberg_download(11)
tidy_text <- raw_text %>% 
  unnest_tokens(output = bigram, input = text, token = "ngrams", n = 2)
tidy_text
```

    ## # A tibble: 26,693 x 2
    ##    gutenberg_id bigram            
    ##           <int> <chr>             
    ##  1           11 alice's adventures
    ##  2           11 adventures in     
    ##  3           11 in wonderland     
    ##  4           11 wonderland lewis  
    ##  5           11 lewis carroll     
    ##  6           11 carroll the       
    ##  7           11 the millennium    
    ##  8           11 millennium fulcrum
    ##  9           11 fulcrum edition   
    ## 10           11 edition 3.0       
    ## # … with 26,683 more rows

This data structure is still a variation of the tidy text format. It is
structured as one-token-per-row, but each token now represents a bigram.
Notice that these bigrams overlap: *“alice’s adventures”* is one token,
while *“adventures in”* is another.

``` r
tidy_text %>% 
  count(bigram, sort = TRUE)
```

    ## # A tibble: 14,740 x 2
    ##    bigram         n
    ##    <chr>      <int>
    ##  1 said the     210
    ##  2 of the       133
    ##  3 said alice   116
    ##  4 in a          97
    ##  5 and the       82
    ##  6 in the        80
    ##  7 it was        76
    ##  8 to the        69
    ##  9 the queen     65
    ## 10 as she        61
    ## # … with 14,730 more rows
As you might expect, a lot of the most common bigrams are pairs of
common (uninteresting) words, such as `said the` and `of the`: what we
call “stop-words”. This time, in order to remove those cases, we use
`separate()` function from `tidyr` package to split a column into two
columns, “word 1” and “word 2” and we can remove cases where either is a
stop-word.

``` r
library(tidyr)
bigrams_separated <- tidy_text %>% 
  separate(bigram, c("word1", "word2"), sep = " ")
bigrams_separated
```

    ## # A tibble: 26,693 x 3
    ##    gutenberg_id word1      word2     
    ##           <int> <chr>      <chr>     
    ##  1           11 alice's    adventures
    ##  2           11 adventures in        
    ##  3           11 in         wonderland
    ##  4           11 wonderland lewis     
    ##  5           11 lewis      carroll   
    ##  6           11 carroll    the       
    ##  7           11 the        millennium
    ##  8           11 millennium fulcrum   
    ##  9           11 fulcrum    edition   
    ## 10           11 edition    3.0       
    ## # … with 26,683 more rows

``` r
bigrams_filtered <- bigrams_separated %>% 
  filter(!word1 %in% stop_words$word) %>% 
  filter(!word2 %in% stop_words$word) %>% 
  count(word1, word2, sort = TRUE)
bigrams_filtered
```

    ## # A tibble: 1,288 x 3
    ##    word1     word2       n
    ##    <chr>     <chr>   <int>
    ##  1 mock      turtle     54
    ##  2 march     hare       31
    ##  3 white     rabbit     22
    ##  4 poor      alice      11
    ##  5 alice     replied     9
    ##  6 alice     looked      8
    ##  7 beautiful soup        8
    ##  8 cried     alice       7
    ##  9 soo       oop         7
    ## 10 golden    key         6
    ## # … with 1,278 more rows

``` r
bigrams_united <- bigrams_filtered %>% 
  unite(bigram, word1, word2, sep = " ")
bigrams_united
```

    ## # A tibble: 1,288 x 2
    ##    bigram             n
    ##    <chr>          <int>
    ##  1 mock turtle       54
    ##  2 march hare        31
    ##  3 white rabbit      22
    ##  4 poor alice        11
    ##  5 alice replied      9
    ##  6 alice looked       8
    ##  7 beautiful soup     8
    ##  8 cried alice        7
    ##  9 soo oop            7
    ## 10 golden key         6
    ## # … with 1,278 more rows
…
Now that we have the data organized into bigrams, it’s easy to tell how
often words are preceded by a word like “not”:

``` r
bigrams_separated %>% 
  filter(word1 == "not") %>% 
  count(word1, word2, sort = TRUE)
```

    ## # A tibble: 81 x 3
    ##    word1 word2     n
    ##    <chr> <chr> <int>
    ##  1 not   a         9
    ##  2 not   like      7
    ##  3 not   said      6
    ##  4 not   the       6
    ##  5 not   at        5
    ##  6 not   could     5
    ##  7 not   to        5
    ##  8 not   quite     4
    ##  9 not   gone      3
    ## 10 not   join      3
    ## # … with 71 more rows
By performing sentiment analysis on the bigram data, we can examine how
often sentiment-associated words are preceded by “not” or other negative
words. We could use this to ignore or even reverse their contribution to
the sentiment score.

Let’s use the `AFINN` lexicon for sentiment analysis, which you may
recall gives a numeric sentiment value for each word, with positive or
negative numbers indicating the direction of the sentiment.

``` r
AFINN <- get_sentiments(lexicon = "afinn")
AFINN
```

    ## # A tibble: 2,477 x 2
    ##    word       value
    ##    <chr>      <dbl>
    ##  1 abandon       -2
    ##  2 abandoned     -2
    ##  3 abandons      -2
    ##  4 abducted      -2
    ##  5 abduction     -2
    ##  6 abductions    -2
    ##  7 abhor         -3
    ##  8 abhorred      -3
    ##  9 abhorrent     -3
    ## 10 abhors        -3
    ## # … with 2,467 more rows

``` r
reverse_words <- bigrams_separated %>% 
  filter(word1 %in% c("don't", "not", "no", "never")) %>% 
  inner_join(AFINN, by = c(word2 = "word")) %>% 
  count(word2, value, sort = TRUE)
reverse_words
```

    ## # A tibble: 26 x 3
    ##    word2  value     n
    ##    <chr>  <dbl> <int>
    ##  1 like       2    11
    ##  2 doubt     -1     3
    ##  3 join       1     3
    ##  4 no        -1     3
    ##  5 want       1     3
    ##  6 chance     2     2
    ##  7 help       2     2
    ##  8 allow      1     1
    ##  9 bother    -2     1
    ## 10 care       2     1
    ## # … with 16 more rows
…
alice_bigram_sentiment <- raw_text %>% 
  mutate(linenumber = row_number()) %>% 
  unnest_tokens(output = bigram, input = text, token = "ngrams", n = 2) %>% 
  separate(bigram, c("word1", "word2"), sep = " ") %>% 
  inner_join(get_sentiments("bing"), by = c("word2" = "word")) %>% 
  mutate(contribution = ifelse(word1 %in% c("don't", "no", "not", "never"),
                               ifelse(sentiment == "negative", "positive", "negative"), sentiment)) %>% 
  count(index = linenumber %/% 25, contribution) %>% 
  spread(contribution, n, fill = 0) %>% 
  mutate(contribution = positive - negative,
         fill = ifelse(contribution >= 0, "positive score", "negative score"))
alice_bigram_sentiment
```

    ## # A tibble: 134 x 5
    ##    index negative positive contribution fill          
    ##    <dbl>    <dbl>    <dbl>        <dbl> <chr>         
    ##  1     0        3        4            1 positive score
    ##  2     1        6        5           -1 negative score
    ##  3     2       10       13            3 positive score
    ##  4     3        6        3           -3 negative score
    ##  5     4        2        7            5 positive score
    ##  6     5        8        9            1 positive score
    ##  7     6        4       10            6 positive score
    ##  8     7        9        8           -1 negative score
    ##  9     8        4        2           -2 negative score
    ## 10     9        6        9            3 positive score
    ## # … with 124 more rows
…
### 3.3 Create a Bigram Wordcloud

``` r
library(wordcloud)
library(ggplot2)
library(reshape2)
raw_text <- gutenberg_download(11)
tidy_text <- raw_text %>% 
  unnest_tokens(output = bigram, input = text, token = "ngrams", n = 2)
tidy_text
```

    ## # A tibble: 26,693 x 2
    ##    gutenberg_id bigram            
    ##           <int> <chr>             
    ##  1           11 alice's adventures
    ##  2           11 adventures in     
    ##  3           11 in wonderland     
    ##  4           11 wonderland lewis  
    ##  5           11 lewis carroll     
    ##  6           11 carroll the       
    ##  7           11 the millennium    
    ##  8           11 millennium fulcrum
    ##  9           11 fulcrum edition   
    ## 10           11 edition 3.0       
    ## # … with 26,683 more rows

``` r
bigrams_united <- tidy_text %>% 
  separate(bigram, c("word1", "word2"), sep = " ") %>% 
  filter(!word1 %in% stop_words$word) %>% 
  filter(!word2 %in% stop_words$word) %>% 
  count(word1, word2, sort = TRUE) %>% 
  unite(bigram, word1, word2, sep = " ")
bigrams_united
```

    ## # A tibble: 1,288 x 2
    ##    bigram             n
    ##    <chr>          <int>
    ##  1 mock turtle       54
    ##  2 march hare        31
    ##  3 white rabbit      22
    ##  4 poor alice        11
    ##  5 alice replied      9
    ##  6 alice looked       8
    ##  7 beautiful soup     8
    ##  8 cried alice        7
    ##  9 soo oop            7
    ## 10 golden key         6
    ## # … with 1,278 more rows
…
